<svg width="56" height="56" viewBox="0 0 56 56" fill="none" xmlns="http://www.w3.org/2000/svg">
<path fill-rule="evenodd" clip-rule="evenodd" d="M32.704 24.0561C26.0589 24.0561 20.6526 18.66 20.6526 12.0278C20.6526 5.39569 26.0589 0 32.704 0C39.3491 0 44.7553 5.39569 44.7553 12.0278C44.7553 18.66 39.3491 24.0561 32.704 24.0561ZM32.704 21.869C38.141 21.869 42.5644 17.4543 42.5644 12.0278C42.5644 6.60181 38.141 2.18707 32.704 2.18707C27.2669 2.18707 22.8435 6.60181 22.8435 12.0278C22.8435 17.4543 27.2669 21.869 32.704 21.869ZM25.8399 36.4347C26.2675 36.8624 26.2675 37.5545 25.8399 37.9822C25.4118 38.4086 24.7183 38.4086 24.2898 37.9822C23.8626 37.5545 23.8626 36.8624 24.2898 36.4347C24.7183 36.0083 25.4118 36.0083 25.8399 36.4347ZM12.6762 55.6765C13.1009 56.1037 13.7922 56.1084 14.2224 55.6855L19.5341 50.4628C20.4365 49.5622 20.7109 48.2287 20.3141 47.0696L21.4566 45.9699C22.0718 45.3769 22.8817 45.05 23.7379 45.05H38.3025C40.8864 45.05 43.3286 44.0597 45.1801 42.2614C45.1811 42.2604 45.182 42.2595 45.1828 42.2588C45.1856 42.2563 45.187 42.2552 45.1885 42.2541C45.2051 42.2415 45.2189 42.2251 47.0065 40.0914C48.3845 38.4466 50.8165 35.5437 55.1163 30.4147C56.6758 28.5733 56.4425 25.8081 54.5957 24.25C52.7605 22.7063 50.0114 22.9281 48.4476 24.7379L41.9827 31.3696C41.1664 30.3669 39.9215 29.7418 38.5765 29.7418H26.3594C24.621 29.0159 22.7764 28.6485 20.8731 28.6485C15.5974 28.6485 10.9909 31.0804 8.51868 35.6399C7.47716 35.443 6.3787 35.7574 5.58846 36.5461L0.376556 41.7632C-0.0489579 42.1892 -0.049814 42.8783 0.374844 43.3056L12.6762 55.6765ZM20.8727 30.8351C22.5508 30.8351 24.1732 31.1722 25.6959 31.837C25.8346 31.8977 25.984 31.9289 26.1351 31.9289H38.5765C39.7644 31.9289 40.7678 32.8957 40.7678 34.1155C40.7678 35.3216 39.7849 36.3026 38.5765 36.3026H29.6377C29.0328 36.3026 28.5422 36.7922 28.5422 37.3959C28.5422 38 29.0328 38.4892 29.6377 38.4892H38.5765C40.993 38.4892 42.9587 36.5273 42.9587 34.1155C42.9587 33.9233 42.945 33.7327 42.9202 33.5439C44.939 31.4728 46.398 29.9763 47.4495 28.8978L47.4812 28.8652C49.6594 26.6311 50.0682 26.2118 50.0936 26.1816C50.8744 25.2617 52.2605 25.1451 53.1826 25.9209C54.1056 26.6998 54.2225 28.0824 53.4395 29.0074L43.6129 40.7318C42.1779 42.1067 40.2939 42.8634 38.3025 42.8634H23.7379C22.3106 42.8634 20.9596 43.4081 19.9348 44.3963L19.0037 45.2931L10.4206 36.7273C12.4266 32.9714 16.1908 30.8351 20.8727 30.8351ZM7.13897 38.0915C7.50027 37.7309 8.05507 37.6659 8.49556 37.9377C8.50358 37.9425 8.51028 37.9463 8.51651 37.9498C8.51947 37.9515 8.52233 37.9531 8.52517 37.9548C8.60097 37.9986 8.66506 38.0627 10.4336 39.8313C11.7569 41.1546 14.0343 43.4322 17.9849 47.3695C18.4228 47.8066 18.3992 48.503 17.9909 48.9106L13.4626 53.363L2.69762 42.537L7.13897 38.0915ZM31.3882 6.74876V5.46744C31.3882 4.86332 31.8787 4.37369 32.4836 4.37369C33.0885 4.37369 33.5791 4.86332 33.5791 5.46744V6.74107C34.0799 6.90684 34.6365 7.21061 35.1925 7.74766C35.627 8.16764 35.6386 8.85978 35.2178 9.29386C34.797 9.72752 34.1035 9.73905 33.6686 9.31907C33.2816 8.94523 32.8719 8.74741 32.4836 8.74741C31.8796 8.74741 31.3882 9.23832 31.3882 9.84116C31.3882 10.444 31.8796 10.9345 32.4836 10.9345C34.2961 10.9345 35.7704 12.4059 35.7704 14.2149C35.7704 15.6402 34.8544 16.8557 33.5791 17.3073V18.5886C33.5791 19.1927 33.0885 19.6819 32.4836 19.6819C31.8787 19.6819 31.3882 19.1927 31.3882 18.5886V17.3124C30.6583 17.068 29.9695 16.5835 29.3839 15.8884C28.9943 15.4261 29.0543 14.7366 29.5174 14.3478C29.9806 13.9594 30.6716 14.0188 31.0611 14.4811C31.5102 15.0147 32.0157 15.3082 32.4836 15.3082C33.0877 15.3082 33.5791 14.8177 33.5791 14.2149C33.5791 13.612 33.0877 13.1216 32.4836 13.1216C30.6711 13.1216 29.1968 11.6497 29.1968 9.84116C29.1968 8.41544 30.1129 7.19993 31.3882 6.74876Z" fill="#FAE41E"/>
</svg>
