<svg width="56" height="56" viewBox="0 0 56 56" fill="none" xmlns="http://www.w3.org/2000/svg">
<path fill-rule="evenodd" clip-rule="evenodd" d="M53.2 47.6H54.1333C55.1643 47.6 56 48.4357 56 49.4667V51.3333C55.9969 53.9094 53.9094 55.9969 51.3333 56H4.66667C2.09062 55.9969 0.00308571 53.9094 0 51.3333V49.4667C0 48.4357 0.835735 47.6 1.86667 47.6H2.8V26.1333C2.8 25.6179 3.21787 25.2 3.73333 25.2C4.2488 25.2 4.66667 25.6179 4.66667 26.1333V47.6H18.6667C19.162 47.5987 19.6372 47.7956 19.9864 48.1469L21.0317 49.1923C21.2073 49.3683 21.4458 49.4671 21.6944 49.4667H34.3009C34.5528 49.4668 34.7942 49.3659 34.9711 49.1867L36.0136 48.1469C36.3628 47.7956 36.838 47.5987 37.3333 47.6H51.3333V15.8667H47.6V42.9333C47.6 43.4488 47.1821 43.8667 46.6667 43.8667C46.1512 43.8667 45.7333 43.4488 45.7333 42.9333V2.8C45.7333 2.28453 45.3155 1.86667 44.8 1.86667H11.2C10.6845 1.86667 10.2667 2.28453 10.2667 2.8V42.9333C10.2667 43.4488 9.8488 43.8667 9.33333 43.8667C8.81787 43.8667 8.4 43.4488 8.4 42.9333V15.8667H4.66667V21.4667C4.66667 21.9821 4.2488 22.4 3.73333 22.4C3.21787 22.4 2.8 21.9821 2.8 21.4667V15.8667C2.8 14.8357 3.63574 14 4.66667 14H8.4V2.8C8.4 1.2536 9.6536 0 11.2 0H44.8C46.3464 0 47.6 1.2536 47.6 2.8V14H51.3333C52.3643 14 53.2 14.8357 53.2 15.8667V47.6ZM51.3333 54.1333C52.8797 54.1333 54.1333 52.8797 54.1333 51.3333V49.4667H37.3333L36.2908 50.5092C35.7639 51.0382 35.0476 51.3349 34.3009 51.3333H21.6944C20.9504 51.3354 20.2365 51.0397 19.712 50.512L18.6667 49.4667H10.2667V51.3333C10.2667 51.8488 9.8488 52.2667 9.33333 52.2667C8.81787 52.2667 8.4 51.8488 8.4 51.3333V49.4667H6.53333V51.3333C6.53333 51.8488 6.11547 52.2667 5.6 52.2667C5.08453 52.2667 4.66667 51.8488 4.66667 51.3333V49.4667H1.86667V51.3333C1.86667 52.8797 3.12027 54.1333 4.66667 54.1333H51.3333ZM13.0661 3.7334H16.7995C17.3149 3.7334 17.7328 4.15127 17.7328 4.66673C17.7328 5.1822 17.3149 5.60007 16.7995 5.60007H13.9995V8.40007C13.9995 8.91553 13.5816 9.3334 13.0661 9.3334C12.5507 9.3334 12.1328 8.91553 12.1328 8.40007V4.66673C12.1328 4.15127 12.5507 3.7334 13.0661 3.7334ZM41.0681 16.8C41.0766 10.5955 36.7206 5.24049 30.6443 3.98559C24.5679 2.73068 18.447 5.92194 15.9968 11.6223C13.5466 17.3226 15.443 23.9599 20.5348 27.5054V33.6H19.6015C18.8449 33.5979 18.1618 34.0528 17.872 34.7517C17.5822 35.4506 17.7429 36.2553 18.2789 36.7892L26.6789 45.1893C27.4104 45.9171 28.5925 45.9171 29.324 45.1893L37.724 36.7892C38.2601 36.2553 38.4208 35.4506 38.131 34.7517C37.8412 34.0528 37.1581 33.5979 36.4015 33.6H35.4681V27.5054C38.9735 25.0677 41.0649 21.0697 41.0681 16.8ZM16.8015 16.8C16.8015 10.6145 21.8159 5.60005 28.0015 5.60005C34.1871 5.60005 39.2015 10.6145 39.2015 16.8C39.2015 22.9856 34.1871 28 28.0015 28C21.8187 27.9934 16.8082 22.9829 16.8015 16.8ZM36.4015 35.4667L28.0015 43.8667L19.6015 35.4667H21.4681C21.9836 35.4667 22.4015 35.0488 22.4015 34.5334V28.588C25.9402 30.2929 30.0628 30.2929 33.6015 28.588V34.5334C33.6015 35.0488 34.0193 35.4667 34.5348 35.4667H36.4015ZM28.932 24.1835V24.2666C28.932 24.782 28.5142 25.1999 27.9987 25.1999C27.4832 25.1999 27.0654 24.782 27.0654 24.2666V24.1816C24.9918 23.8889 23.4221 22.1587 23.332 20.0666C23.332 19.5511 23.7499 19.1332 24.2654 19.1332C24.7808 19.1332 25.1987 19.5511 25.1987 20.0666C25.2662 21.1301 26.0261 22.0222 27.0654 22.258V17.6483C24.9918 17.3556 23.4221 15.6254 23.332 13.5332C23.4221 11.4411 24.9918 9.71089 27.0654 9.41817V9.33324C27.0654 8.81777 27.4832 8.3999 27.9987 8.3999C28.5142 8.3999 28.932 8.81777 28.932 9.33324V9.41817C31.0056 9.71089 32.5753 11.4411 32.6654 13.5332C32.6654 14.0487 32.2475 14.4666 31.732 14.4666C31.2166 14.4666 30.7987 14.0487 30.7987 13.5332C30.7313 12.4694 29.9715 11.577 28.932 11.3408V15.9506C31.0059 16.2434 32.5757 17.9741 32.6654 20.0666C32.5761 22.1594 31.0062 23.8906 28.932 24.1835ZM28.932 22.2562C29.9707 22.0205 30.7304 21.1294 30.7987 20.0666C30.7309 19.0031 29.9711 18.1112 28.932 17.8751V22.2562ZM27.0654 11.3427C26.0266 11.5787 25.2669 12.4702 25.1987 13.5332C25.2669 14.5963 26.0266 15.4878 27.0654 15.7238V11.3427Z" fill="#FAE41E"/>
</svg>
